Project 1
…
save.image("myWorkSpace.RData")
Happy <- read.csv("Happy.csv") 
Countries <- read.csv("Countries.csv")  %>% mutate(Region=recode(Region, CentralAsia="Asia", EasternAsia="Asia", EasternAfrica="Africa", NorthernAfrica="Africa", EasternEurope="Europe", NorthernEurope="Europe", MiddleAfrica="Africa", "South-easternAsia" = "Asia", SouthernAfrica="Africa", WesternAfrica="Africa", WesternAsia="Asia", WesternEurope="Europe", SouthernEurope="Europe", SouthernAsia="Asia", Oceania="Asia", NorthernAmerica="Americas", SouthAmerica="Americas", CentralAmerica="Americas")) %>% mutate(SurfaceArea=as.numeric(`Surface.area..km2.`), PopulationDensity = as.numeric(`Population.density..per.km2..2017.`), Region = as.character(Region))%>% select(-`Surface.area..km2.`, -`Population.density..per.km2..2017.`)   

0. Introduction:

The two data sets that I chose were Happy and Countries. The Happy data set contains the Happiness Rank of a country as calculated by the World Happiness Report in 2017. Freedom represents the magnitude of freedom recorded by some measure, and Economy GDP is a scaled measure of a countries GDP in the year of 2017. The Countries data set contains the Region that a country is in, its Surface Area in km^2, and Population density as of 2017, which shows the number of inhabitants per square kilometer.

I acquired these two data sets on an online website called Kaggle, where users can upload data sets. Because I wanted to look at how the physical attributes of a country pertain to it's Happiness Rank, I thought it would be ideal to join the Happy data set with the Countries data set, which contains more geographical/population information. I suspect that countries in more developed regions, such as Europe and the Americas, will rank lower/better for happiness, and thus will also have higher GDPs and Freedom.

1. Tidying: Rearranging Wide/Long

Happy %>% pivot_wider(names_from = "Country", values_from="Freedom") %>% pivot_longer(3:157, names_to="Country", values_to="Freedom") %>% filter(!is.na(Freedom))  

## # A tibble: 155 x 4
##    Happiness.Rank EconomyGDP Country     Freedom
##             <int>      <dbl> <chr>         <dbl>
##  1              1       1.62 Norway        0.635
##  2              2       1.48 Denmark       0.626
##  3              3       1.48 Iceland       0.627
##  4              4       1.56 Switzerland   0.620
##  5              5       1.44 Finland       0.618
##  6              6       1.50 Netherlands   0.585
##  7              7       1.48 Canada        0.611
##  8              8       1.41 New Zealand   0.614
##  9              9       1.49 Sweden        0.613
## 10             10       1.48 Australia     0.602
## # … with 145 more rows

Countries %>% pivot_wider(names_from="Region", values_from="SurfaceArea") %>% pivot_longer(3:10, names_to="Region", values_to="SurfaceArea") %>% filter(!is.na(SurfaceArea))

## # A tibble: 229 x 4
##    country             PopulationDensity Region    SurfaceArea
##    <fct>                           <dbl> <chr>           <dbl>
##  1 Afghanistan                      54.4 Asia              184
##  2 Albania                         107.  Europe            109
##  3 Algeria                          17.3 Africa             84
##  4 American Samoa                  278.  Polynesia          67
##  5 Andorra                         164.  Europe            154
##  6 Angola                           23.9 Africa             31
##  7 Anguilla                        166.  Caribbean         214
##  8 Antigua and Barbuda             232.  Caribbean         147
##  9 Argentina                        16.2 Americas          105
## 10 Armenia                         103.  Asia              111
## # … with 219 more rows
…
I performed an inner join to combine the two data sets. There were 155 observations in the "Happy" data set, and 229 observations in the "Countries" data set. There were 6 observations dropped from the Happy data set, which were Taiwan Province of China, North Cyprus, Kosovo, Congo (Brazzaville), Congo (Kinshasa), and Ivory Coast. There were 80 observations dropped from the Countries data set, and most were smaller countries such as Fiji, the Bahamas, Isle of Man, etc. Because so many smaller countries were dropped, this means that the sample is not entirely representative of the world, and thus my findings will not be as generalizable as they could be.

I chose to perform an inner join to ensure that I would retain the data that had matches for countries across the two data sets; I also did not want any NAs. I believe that in order to achieve these wants, an inner join was necessary.

3. Wrangling:

#Mutating a Variable that is dependent on another variable 
joined2 <- joined %>%  mutate(KmPerPerson = SurfaceArea/PopulationDensity) %>% mutate(KmPerPerson=as.numeric(KmPerPerson))

#Mean, SD, Min, Max, and Distinct Values (no grouping)
joined2 %>% select(-Happiness.Rank) %>% summarize_if(is.numeric, c(mean=mean, sd=sd, min=min, max=max, distinct=n_distinct)) %>% pivot_longer(1:25, names_to="Var", values_to="Value") %>% separate(Var, into=c("Var", "Stat"))

## # A tibble: 25 x 3
##    Var               Stat    Value
##    <chr>             <chr>   <dbl>
##  1 EconomyGDP        mean    0.987
##  2 Freedom           mean    0.411
##  3 SurfaceArea       mean  118.   
##  4 PopulationDensity mean  253.   
##  5 KmPerPerson       mean    4.06 
##  6 EconomyGDP        sd      0.420
##  7 Freedom           sd      0.152
##  8 SurfaceArea       sd     67.5  
##  9 PopulationDensity sd    898.   
## 10 KmPerPerson       sd      9.72 
## # … with 15 more rows

#Grouped by Top Half Vs. Bottom Half 
joined2 %>% mutate(TopHalf=Happiness.Rank==1:75) %>% select(-Region) %>% group_by(TopHalf) %>% summarize_at(3:6, c(mean=mean, sd=sd, min=min, max=max)) %>% pivot_longer(2:17, names_to="Var", values_to="Value") %>% separate(Var, into=c("Var", "Stat")) 

## Warning: Problem with `mutate()` input `TopHalf`.
## x longer object length is not a multiple of shorter object length
## ℹ Input `TopHalf` is `Happiness.Rank == 1:75`.

## Warning in Happiness.Rank == 1:75: longer object length is not a multiple of
## shorter object length

## # A tibble: 32 x 4
##    TopHalf Var               Stat    Value
##    <lgl>   <chr>             <chr>   <dbl>
##  1 FALSE   EconomyGDP        mean    0.874
##  2 FALSE   Freedom           mean    0.372
##  3 FALSE   SurfaceArea       mean  111.   
##  4 FALSE   PopulationDensity mean  209.   
##  5 FALSE   EconomyGDP        sd      0.394
##  6 FALSE   Freedom           sd      0.145
##  7 FALSE   SurfaceArea       sd     68.3  
##  8 FALSE   PopulationDensity sd    683.   
##  9 FALSE   EconomyGDP        min     0    
## 10 FALSE   Freedom           min     0    
## # … with 22 more rows
…
#Grouped by Top Half and Grouped by Region  
joined2 %>% filter(Happiness.Rank==1:75) %>% group_by(Region) %>% summarize_if(is.numeric, c(mean=mean, sd=sd)) %>% pivot_longer(2:11, names_to="Var", values_to="Value") %>% pivot_wider(names_from = Region, values_from=Value) %>% separate(Var, into=c("Var", "stat"), sep="_")

## Warning in Happiness.Rank == 1:75: longer object length is not a multiple of
## shorter object length

## # A tibble: 30 x 7
##    PopulationDensity_… KmPerPerson_sd Var            stat  Americas  Asia Europe
##                  <dbl>          <dbl> <chr>          <chr>    <dbl> <dbl>  <dbl>
##  1                46.8           16.7 Happiness.Rank mean   21.1       NA     NA
##  2                46.8           16.7 EconomyGDP     mean    1.22      NA     NA
##  3                46.8           16.7 Freedom        mean    0.508     NA     NA
##  4                46.8           16.7 SurfaceArea    mean  144.        NA     NA
##  5                46.8           16.7 PopulationDen… mean   50.0       NA     NA
##  6                46.8           16.7 KmPerPerson    mean    9.45      NA     NA
##  7                46.8           16.7 Happiness.Rank sd      7.80      NA     NA
##  8                46.8           16.7 EconomyGDP     sd      0.190     NA     NA
##  9                46.8           16.7 Freedom        sd      0.0779    NA     NA
## 10                46.8           16.7 SurfaceArea    sd     79.9       NA     NA
## # … with 20 more rows
…
